appdirs==1.4.4
attrs==19.3.0
audioread==3.0.0
Automat==0.8.0
blinker==1.6.2
certifi==2019.11.28
cffi==1.15.1
chainer==7.8.1
chardet==3.0.4
click==8.1.3
colorama==0.4.3
command-not-found==0.3
configobj==5.0.6
constantly==15.1.0
cryptography==2.8
dbus-python==1.2.16
decorator==5.1.1
distro==1.4.0
distro-info===0.23ubuntu1
entrypoints==0.3
filelock==3.12.0
Flask==2.3.2
httplib2==0.14.0
hyperlink==19.0.0
idna==2.8
importlib-metadata==6.6.0
incremental==16.10.1
itsdangerous==2.1.2
Jinja2==3.1.2
joblib==1.2.0
keyring==18.0.1
language-selector==0.1
launchpadlib==1.10.13
lazr.restfulclient==0.14.2
lazr.uri==1.0.3
lazy-loader==0.2
librosa==0.7.0
llvmlite==0.31.0
MarkupSafe==2.1.2
msgpack==1.0.5
netifaces==0.10.4
numba==0.48.0
numpy==1.20.0
oauthlib==3.1.0
packaging==23.1
pooch==1.6.0
protobuf==4.23.1
pyasn1==0.4.2
pyasn1-modules==0.2.1
pycparser==2.21
pydub==0.25.1
PyGObject==3.36.0
PyHamcrest==1.9.0
PyJWT==1.7.1
pymacaroons==0.13.0
PyNaCl==1.3.0
pyOpenSSL==19.0.0
python-apt==2.0.0
python-debian===0.1.36ubuntu1
PyYAML==5.3.1
requests==2.22.0
requests-unixsocket==0.2.0
resampy==0.3.1
scikit-learn==1.2.2
scipy==1.10.1
SecretStorage==2.3.1
service-identity==18.1.0
simplejson==3.16.0
six==1.14.0
soundfile==0.12.1
soxr==0.3.5
ssh-import-id==5.10
systemd-python==234
threadpoolctl==3.1.0
Twisted==18.9.0
typing-extensions==4.5.0
ubuntu-advantage-tools==20.3
ufw==0.36
unattended-upgrades==0.1
urllib3==1.25.8
wadllib==1.3.3
Werkzeug==2.3.4
zipp==3.15.0
zope.interface==4.7.1
